[gd_scene load_steps=11 format=2]

[ext_resource path="res://Scripts/Level4.gd" type="Script" id=1]
[ext_resource path="res://Songs/House In a Forest Loop.ogg" type="AudioStream" id=2]
[ext_resource path="res://Scenes/Player.tscn" type="PackedScene" id=3]
[ext_resource path="res://tiles/wallnfloor.tres" type="TileSet" id=4]
[ext_resource path="res://Scenes/xEnemy.tscn" type="PackedScene" id=5]
[ext_resource path="res://Scenes/yEnemy.tscn" type="PackedScene" id=6]
[ext_resource path="res://Scenes/LevelComplete.tscn" type="PackedScene" id=7]
[ext_resource path="res://Scripts/Level4Complete.gd" type="Script" id=8]
[ext_resource path="res://Scenes/DialogBox.tscn" type="PackedScene" id=9]
[ext_resource path="res://Scenes/Pause.tscn" type="PackedScene" id=10]

[node name="Level4" type="Node2D"]

script = ExtResource( 1 )

[node name="BackgroundMusic" type="AudioStreamPlayer" parent="." index="0"]

stream = ExtResource( 2 )
volume_db = 0.0
pitch_scale = 1.0
autoplay = true
mix_target = 0
bus = "Master"

[node name="Game" type="CanvasLayer" parent="." index="1"]

layer = 1
offset = Vector2( 0, 0 )
rotation = 0.0
scale = Vector2( 1, 1 )
transform = Transform2D( 1, 0, 0, 1, 0, 0 )

[node name="Player" parent="Game" index="0" instance=ExtResource( 3 )]

position = Vector2( 482.428, 37.7267 )

[node name="TileMap" type="TileMap" parent="Game" index="1"]

z_index = -100
mode = 0
tile_set = ExtResource( 4 )
cell_size = Vector2( 64, 64 )
cell_quadrant_size = 16
cell_custom_transform = Transform2D( 1, 0, 0, 1, 0, 0 )
cell_half_offset = 2
cell_tile_origin = 0
cell_y_sort = false
cell_clip_uv = false
collision_use_kinematic = false
collision_friction = 1.0
collision_bounce = 0.0
collision_layer = 1
collision_mask = 1
occluder_light_mask = 1
format = 1
tile_data = PoolIntArray( -65529, 1, 0, 0, 1, 0, 1, 1, 0, 2, 1, 0, 3, 1, 0, 4, 1, 0, 5, 1, 0, 6, 1, 0, 7, 6, 0, 8, 1, 0, 9, 6, 0, 10, 1, 0, 11, 1, 0, 12, 1, 0, 13, 1, 0, 14, 1, 0, 15, 1, 0, 65536, 1, 0, 65537, 6, 0, 65538, 6, 0, 65539, 6, 0, 65540, 6, 0, 65541, 6, 0, 65542, 6, 0, 65543, 6, 0, 65544, 1, 0, 65545, 6, 0, 65546, 1, 0, 65547, 6, 0, 65548, 6, 0, 65549, 6, 0, 65550, 6, 0, 65551, 1, 0, 131072, 1, 0, 131073, 6, 0, 131074, 6, 0, 131075, 6, 0, 131076, 6, 0, 131077, 6, 0, 131078, 6, 0, 131079, 6, 0, 131080, 1, 0, 131081, 6, 0, 131082, 1, 0, 131083, 6, 0, 131084, 1, 0, 131085, 6, 0, 131086, 6, 0, 131087, 1, 0, 196608, 1, 0, 196609, 6, 0, 196610, 1, 0, 196611, 1, 0, 196612, 6, 0, 196613, 1, 0, 196614, 1, 0, 196615, 1, 0, 196616, 1, 0, 196617, 6, 0, 196618, 1, 0, 196619, 6, 0, 196620, 1, 0, 196621, 6, 0, 196622, 6, 0, 196623, 1, 0, 262144, 1, 0, 262145, 6, 0, 262146, 6, 0, 262147, 6, 0, 262148, 6, 0, 262149, 6, 0, 262150, 6, 0, 262151, 6, 0, 262152, 1, 0, 262153, 6, 0, 262154, 6, 0, 262155, 6, 0, 262156, 1, 0, 262157, 6, 0, 262158, 6, 0, 262159, 1, 0, 327680, 1, 0, 327681, 6, 0, 327682, 6, 0, 327683, 6, 0, 327684, 6, 0, 327685, 6, 0, 327686, 6, 0, 327687, 6, 0, 327688, 1, 0, 327689, 1, 0, 327690, 6, 0, 327691, 1, 0, 327692, 1, 0, 327693, 6, 0, 327694, 6, 0, 327695, 1, 0, 393216, 1, 0, 393217, 1, 0, 393218, 1, 0, 393219, 1, 0, 393220, 1, 0, 393221, 1, 0, 393222, 1, 0, 393223, 6, 0, 393224, 6, 0, 393225, 6, 0, 393226, 1, 0, 393227, 6, 0, 393228, 6, 0, 393229, 6, 0, 393230, 6, 0, 393231, 1, 0, 458752, 1, 0, 458753, 1, 0, 458754, 1, 0, 458755, 1, 0, 458756, 1, 0, 458757, 6, 0, 458758, 6, 0, 458759, 6, 0, 458760, 6, 0, 458761, 6, 0, 458762, 6, 0, 458763, 6, 0, 458764, 6, 0, 458765, 6, 0, 458766, 6, 0, 458767, 1, 0, 524288, 1, 0, 524289, 1, 0, 524290, 1, 0, 524291, 1, 0, 524292, 1, 0, 524293, 1, 0, 524294, 1, 0, 524295, 1, 0, 524296, 1, 0, 524297, 1, 0, 524298, 1, 0, 524299, 1, 0, 524300, 1, 0, 524301, 1, 0, 524302, 1, 0, 524303, 1, 0 )
_sections_unfolded = [ "Z Index" ]

[node name="xEnemy" parent="Game" index="2" instance=ExtResource( 5 )]

position = Vector2( 734.655, 291.639 )
speed = 100

[node name="xEnemy2" parent="Game" index="3" instance=ExtResource( 5 )]

position = Vector2( 741.644, 482.657 )
speed = 150

[node name="yEnemy" parent="Game" index="4" instance=ExtResource( 6 )]

position = Vector2( 932.558, 483.896 )
speed = 150

[node name="yEnemy2" parent="Game" index="5" instance=ExtResource( 6 )]

position = Vector2( 869.661, 101.86 )
speed = 150

[node name="yEnemy3" parent="Game" index="6" instance=ExtResource( 6 )]

position = Vector2( 291.948, 220.664 )
speed = 150

[node name="LevelComplete" parent="Game" index="7" instance=ExtResource( 7 )]

position = Vector2( 608.057, -33.9606 )
script = ExtResource( 8 )

[node name="Dialog Box" type="CanvasLayer" parent="." index="2"]

layer = 2
offset = Vector2( 0, 0 )
rotation = 0.0
scale = Vector2( 1, 1 )
transform = Transform2D( 1, 0, 0, 1, 0, 0 )

[node name="DialogBox" parent="Dialog Box" index="0" instance=ExtResource( 9 )]

[node name="Pause" type="CanvasLayer" parent="." index="3"]

layer = 100
offset = Vector2( 0, 0 )
rotation = 0.0
scale = Vector2( 1, 1 )
transform = Transform2D( 1, 0, 0, 1, 0, 0 )

[node name="Pause" parent="Pause" index="0" instance=ExtResource( 10 )]

[connection signal="hide" from="Dialog Box/DialogBox" to="Game/Player" method="_on_DialogBox_hide"]


