[gd_resource type="DynamicFont" load_steps=2 format=2]

[ext_resource path="res://Fonts/04b03/04B_03__.TTF" type="DynamicFontData" id=1]

[resource]

size = 48
use_mipmaps = false
use_filter = false
font_data = ExtResource( 1 )
_sections_unfolded = [ "Font", "Settings" ]

