[gd_scene load_steps=3 format=2]

[ext_resource path="res://TitleScreen/Buttons/MenuButton.tscn" type="PackedScene" id=1]
[ext_resource path="res://Fonts/04b03/04b03.tres" type="DynamicFont" id=2]

[node name="StartGameButton" instance=ExtResource( 1 )]

margin_right = 385.0
rect_min_size = Vector2( 100, 60 )
custom_fonts/font = ExtResource( 2 )
custom_colors/font_color = Color( 1, 1, 1, 1 )
custom_colors/font_color_hover = Color( 0.819608, 0.611765, 0.164706, 1 )
text = "Mulai Permainan"
flat = true
align = 0
_sections_unfolded = [ "Focus", "Hint", "Mouse", "Rect", "Size Flags", "Theme", "custom_colors", "custom_constants", "custom_fonts", "custom_styles" ]

[node name="Label" parent="." index="0"]

margin_top = -2.0
margin_right = 383.0
margin_bottom = 63.0
custom_fonts/font = ExtResource( 2 )
custom_colors/font_color = Color( 1, 1, 1, 1 )
custom_colors/font_color_shadow = Color( 0, 0, 0, 1 )
custom_constants/shadow_offset_x = 0
custom_constants/shadow_offset_y = 5
text = ""
align = 1
_sections_unfolded = [ "custom_colors", "custom_constants", "custom_fonts" ]


